{"hash":"80860a3c7c121b8fbe153e0eed09cc78785437b1","data":{"entries":{"totalCount":56,"pageInfo":{"totalPages":6,"currentPage":6},"edges":[{"node":{"path":"/team/maged_motawea/","content":"\n","excerpt":"Maged is a passionate Computer Scientist who loves exploring new areas in life and technology.","name":"Maged Motawea","rank":1,"bio":"Maged is a passionate Computer Scientist who loves exploring new areas in life and technology. Software Developer fell in love with Threefold because threefold is the future of technology.","linkedin":"https://linkedin.com/in/maged-motawea-b760a5117","websites":"https://threefold.tech","countries":["Egypt"],"cities":["Cairo"],"image":{"type":"image","mimeType":"image/jpeg","src":"/assets/static/maged_motawea.36a08ae.76f00af122a22bb7a48a4e5304f45bd5.jpg","size":{"width":640,"height":640},"sizes":"(max-width: 640px) 100vw, 640px","srcset":["/assets/static/maged_motawea.36a08ae.76f00af122a22bb7a48a4e5304f45bd5.jpg 640w"],"dataUri":"data:image/svg+xml,%3csvg fill='none' viewBox='0 0 640 640' xmlns='http://www.w3.org/2000/svg' xmlns:xlink='http://www.w3.org/1999/xlink'%3e%3cdefs%3e%3cfilter id='__svg-blur-2da1bcbf461f02945a8468d81f0d99ae'%3e%3cfeGaussianBlur in='SourceGraphic' stdDeviation='40'/%3e%3c/filter%3e%3c/defs%3e%3cimage x='0' y='0' filter='url(%23__svg-blur-2da1bcbf461f02945a8468d81f0d99ae)' width='640' height='640' xlink:href='data:image/jpeg%3bbase64%2c/9j/2wBDAAYEBQYFBAYGBQYHBwYIChAKCgkJChQODwwQFxQYGBcUFhYaHSUfGhsjHBYWICwgIyYnKSopGR8tMC0oMCUoKSj/2wBDAQcHBwoIChMKChMoGhYaKCgoKCgoKCgoKCgoKCgoKCgoKCgoKCgoKCgoKCgoKCgoKCgoKCgoKCgoKCgoKCgoKCj/wAARCABAAEADASIAAhEBAxEB/8QAGgAAAgMBAQAAAAAAAAAAAAAAAAcFBggEA//EADAQAAEDAwMCBQQBBAMAAAAAAAECAwQABREGEiExQQcTIlFhCBRxgZEVIzKhQ1LR/8QAGQEAAgMBAAAAAAAAAAAAAAAAAwUBAgQA/8QAHxEAAwACAwADAQAAAAAAAAAAAAECAxESITEEIlFB/9oADAMBAAIRAxEAPwDVNFFQWutQtaV0ncr0%2bkLTEaK0oJxvUSAlP7JFccS8uUxEZLsl5tpsdVLUAKrkjXunmVlP3pcAOCpttSk/zWR9ReJt91FdC64649z6UAcJHsB2qQ0xEvl8eT9pFcG3hRHHv3PHFBvLx96DxhdGvbXf7XdDiDNZdX/0ztV/B5qUrNrWmtZ22KmQbap5KfUlTSgo/sDntTY8LNTLvVvehTg83cIZG5L4wtSD0J/ByP0KmMvLorePj2XqiiiiggpB/VldlIs1gsbayBOlKedA7pbAA/2vP6p%2bVmL6psva/wBLMAnAiOKx7Zc6/wCqivC8LdIXtsgssJSltKUJ74HJpj6HlOxn9jBGFHhJ70tHn3I6yXJrbCjylpLXmL%2bM9hVx0lJkXNp0QEuvyI7SnXFNI2kJA5OKSZopvY/ipS0aesDrztrZVIbCDt4waquonW7NrWFdUpCUOJDD6hxlJOMn8cH9UlNOayvSLkyzGnXZbZXgJU8VJ/BGOAact5S/qTSjMsRnmZSVhCm3UFJOcDkfkit05PrKXqFWTDwpt%2bMYg6UVz251L8CO6jO1baSMjHauity7MTWugrNf1InHiBZ1LbVsTCCUrxxytea0pVH8XdGq1jpVyPC8tF1YIdiOL4G4EEoJ7BQGPzg1S5dLSC4bUVtmbWbOhSFvlSkBX%2bRz1q2eEkpFm1gy%2bE4YOWl8jISeNxFVr7qQ7bPK2lL7KilxonadwyCD7YINeGnEx3paHH1rYkbtq2nEKIPxlJGR/FKp5Jt/g9fCp0l6OW5XHTVt1gXIlohPhza8mQ1xyeTweM9%2bPemLJnx7tYFGLI8oSR5SVnqgnjP5HWkRqU3mWuFLftCYjZQlpDrTgUFlPTKckjj3NXjRl1jx5sFiZIS0004CtajhIUr0pB9sqUBRZtq%2bP6Y82OXjVf2Rr29lUeEwytfmKQgJK8Y3HHXHzXRQOlFMktLQqb29hRRUNqvU1p0paHblfZjcWM2ONxypZ7JSnqpR9hUkCO%2boOyW7T93h3mA6GpVzcWJERP8AyYGS6kducA%2b5I75pdRLlEllsrfLaEn1FJCVEe3NQniLr53XXiGi6hlceChr7aMw4rJSgZJJxxkk5OPgc4r3gW0PywrAAWOorB8mZVb8GnxLvh0Mm4%2bINotcBETTbchbmzaQ96kpJ6q%2bT0rztSkDw11bcbt6XH4qktZPqLm4FGPndg1V2LIzHB3J/uZ6/%2b1H6wuTv9KTDC8R0HO0dFK7UDHcqkp9C5IdJumaS0tqScqyQJOBKTIiNvlClYKV4AUkK7ZOMZ4zmpY68tbLanJaXmUJ5Ktu4D3%2bQRyCMdQaWWh9QW5rTlshyLjDbkNbG0trkoSsoIB4GefVmuDxO8t2MzdYEth6Ejcxcm4zySrY4APMwD1QsZz8/mmm2KD//2Q==' /%3e%3c/svg%3e"},"private":0}},{"node":{"path":"/team/geert_machtelinckx/","content":"\n","excerpt":"Geert has 24 years of experience in IT of a Belgian financial institution, and is passionate about new technologies such as AI and blockchain.","name":"Geert Machtelinckx","rank":1,"bio":"Geert has 24 years of experience in IT of a Belgian financial institution, and is passionate about new technologies such as AI and blockchain. Project Coordination fell in love with Threefold With digitisation and blockchain, the world is changing. I believe that doing it the ThreeFold way, the world will change according to the true spirit of blockchain, enabling a real decentralisation and bringing more equality. Moreover, having internet capacity used as a real world value backing and a monetary instrument, ThreeFold can make the bridge between the cryptoworld and the ‘old’ world.","linkedin":"https://www.linkedin.com/in/geert-machtelinckx-a72453b/","websites":"https://threefold.tech","countries":["Belgium"],"cities":[],"image":{"type":"image","mimeType":"image/jpeg","src":"/assets/static/geert_machtelinckx.36a08ae.8c3081c6dd90388427359ad12fc6c415.jpg","size":{"width":640,"height":640},"sizes":"(max-width: 640px) 100vw, 640px","srcset":["/assets/static/geert_machtelinckx.36a08ae.8c3081c6dd90388427359ad12fc6c415.jpg 640w"],"dataUri":"data:image/svg+xml,%3csvg fill='none' viewBox='0 0 640 640' xmlns='http://www.w3.org/2000/svg' xmlns:xlink='http://www.w3.org/1999/xlink'%3e%3cdefs%3e%3cfilter id='__svg-blur-563edf9c4ae27381a0f51a1ee608956c'%3e%3cfeGaussianBlur in='SourceGraphic' stdDeviation='40'/%3e%3c/filter%3e%3c/defs%3e%3cimage x='0' y='0' filter='url(%23__svg-blur-563edf9c4ae27381a0f51a1ee608956c)' width='640' height='640' xlink:href='data:image/jpeg%3bbase64%2c/9j/2wBDAAYEBQYFBAYGBQYHBwYIChAKCgkJChQODwwQFxQYGBcUFhYaHSUfGhsjHBYWICwgIyYnKSopGR8tMC0oMCUoKSj/2wBDAQcHBwoIChMKChMoGhYaKCgoKCgoKCgoKCgoKCgoKCgoKCgoKCgoKCgoKCgoKCgoKCgoKCgoKCgoKCgoKCgoKCj/wAARCABAAEADASIAAhEBAxEB/8QAHAAAAgMBAQEBAAAAAAAAAAAABQcABAYIAwEC/8QAMBAAAgEDAgQEBAYDAAAAAAAAAQIDAAQRBQYHEiExE0FRYRQicaEIFUJigZFSscH/xAAaAQEAAgMBAAAAAAAAAAAAAAAFAAMBAgYE/8QAIhEAAgICAQQDAQAAAAAAAAAAAQIAEQMEEhMhMUEiIzJR/9oADAMBAAIRAxEAPwDqmpUr8TyLDC8j55UUsceg61JIN1/cGn6FbmXUJgnTIQDLH%2bKTOt8cfBvGlsYX%2bEX5eRkDEtntkH08x50O3NBe7z3TcfEzyx2EZBdV6EL%2blParY2/pMMCW8Fqiqntn70Zm26NRLBp8hZhCbj9YmEG10qYyYGVkbGK02y%2bL2i7hvYrGeOSyvJCFTm%2bZGJ8ubyP1pXalsuwmuPGVSOueXAxms/qm25tKYX%2bnOEMThmXHYetYXd%2bVXNn0SFsTrypWT4Za5Pru1bea%2bGL2EmGbrnJHY59wRWspJW5CxDCKNSUM3PcNabe1GZG5XSBuU%2bhxgUTobuVo10C/8ZOeMwsCvrkY/wB1H/JmUFsBFXoPhRafcOcNJI3MzepwOtUQxaYkggZoZqWtHbm2I551DSvnoF5v1YHb%2bKyG3%2bIl3qV8VvNO8O3MpiV1XByPUfyOtCNjL/Ieo8jBDxPkxly8hTzzQq8RXiZWXmDAgigO7913Wioy2NmJ5gvOQ3YDv69enlXzau5l3FEjFVikwDJGVKlc9u/cVS%2bM1zHiXBwDwPmMDgH8RA%2buW0hJthIrxA5yPLFN%2blFwa1CRtZ1O2ljwpZwjDy5W7H%2b6btN6pvGIDtLxyGSqmr23xemXVuO8kbKPrirdSryLFSgGjYiUvbVDaRiVuTw15RnvQjSNK0v8wZhEGkiXxMnsMGtLxdt5xqWbYhGlhBQnsSCc0oXS%2bfklvF1CAxPhZIFBXt3yD9qEdOLlf5Oiwv1EBHuay7gt5dQdLtAQ3YkdsVct7OOAgRcg9AqisbG0i3BeL8xubpgAfETlz7EnAArUbft7tru2gmK880gUIrc2OvrVDJXYT0MaHcRk8MNMCXeoXwC8hYqpHqe/2H3piV4WVrDZwLDbxpHGPJRjr61709gx9JAs5rPl6rlpKlZ7eO8dE2hZrPrl6kJfPhwr80smP8VHU/XsK534gfiJvL2OW02xbmwhDBWuHIaZl9h2X7n3qy5TG5xYaGeWNA4Lwx5fH6ck96XU89rLY%2bA1x4QXGCOlVo9VuJZ7S9NxNdQz2aCVp2DOezBjjp0LMOnky0B1rQLTUZ%2bay1SezZz80fLzJn2z1H0orYx/aeXuNaj/AEgr6h1ZYbWIr8Q0kmM8x/7Wl4Y8t9uy2DNzlMyHHlgZFLB9qmzwLzWp5w56RRqFLH%2bzV%2bz1u62trlnJopCG2gkkmYJ4gGcKAR3Y9T/XtWmLEDlFd5vsZWGJi3adbjtUpR7C416LrOpy6Jr00On6tDJ4SyElYLhv2luqN%2b1vPpk03AQQCOoNMwKf/9k=' /%3e%3c/svg%3e"},"private":0}},{"node":{"path":"/team/evon_yacoub/","content":"\n","excerpt":"Experienced Office Manager with a demonstrated history of working in the computer software industry.","name":"Evon Yacoub","rank":1,"bio":"Experienced Office Manager with a demonstrated history of working in the computer software industry. Skilled in Human Resources, Management, Office Administration .. has Strong administrative professional. Admin Coordinator fell in love with Threefold I dream about a world where everyone can be happy.","linkedin":"https://www.linkedin.com/in/evon-yacoub-phri-b6028025/","websites":"https://threefold.tech","countries":["Egypt"],"cities":["Cairo"],"image":{"type":"image","mimeType":"image/jpeg","src":"/assets/static/evon_yacoub.36a08ae.abdcd3052dc73b4ede3e707668f2ca29.jpg","size":{"width":640,"height":640},"sizes":"(max-width: 640px) 100vw, 640px","srcset":["/assets/static/evon_yacoub.36a08ae.abdcd3052dc73b4ede3e707668f2ca29.jpg 640w"],"dataUri":"data:image/svg+xml,%3csvg fill='none' viewBox='0 0 640 640' xmlns='http://www.w3.org/2000/svg' xmlns:xlink='http://www.w3.org/1999/xlink'%3e%3cdefs%3e%3cfilter id='__svg-blur-136fcc810cb06424755be41e2cef699d'%3e%3cfeGaussianBlur in='SourceGraphic' stdDeviation='40'/%3e%3c/filter%3e%3c/defs%3e%3cimage x='0' y='0' filter='url(%23__svg-blur-136fcc810cb06424755be41e2cef699d)' width='640' height='640' xlink:href='data:image/jpeg%3bbase64%2c/9j/2wBDAAYEBQYFBAYGBQYHBwYIChAKCgkJChQODwwQFxQYGBcUFhYaHSUfGhsjHBYWICwgIyYnKSopGR8tMC0oMCUoKSj/2wBDAQcHBwoIChMKChMoGhYaKCgoKCgoKCgoKCgoKCgoKCgoKCgoKCgoKCgoKCgoKCgoKCgoKCgoKCgoKCgoKCgoKCj/wAARCABAAEADASIAAhEBAxEB/8QAGwAAAgMBAQEAAAAAAAAAAAAABggABQcECQP/xAAxEAABAwMDAgQFBAIDAAAAAAABAgMEAAURBhIhB0ETMVFhCCJxgZEUIzJCM7GhwdH/xAAYAQADAQEAAAAAAAAAAAAAAAAAAQQDBf/EACERAAICAgICAwEAAAAAAAAAAAABAgMEERIhMUEFImGB/9oADAMBAAIRAxEAPwBqalShbqXqyLozSE67SXEJdSgojoUf8jpHygffk%2bwNAAB1X63N6P1ALPaoDc%2bS2P31LWQErIyEADzPrWU6k%2bITVkiY1KtSI1vjNABUcth1Lh75URnn2oBRa7jd83V8ObpilOImO8IUcndkn1Oef%2bqGb34UdAaQ8l14KIcKSRg0l2OS4sbbpB15t2tbm3ZrxFTa7u6MMEObmZCu6Uk8pV6A%2bfY5rbK8xGJDrEht%2bO4pp9tQWhaDgpUDkEe4NehPSHVo1t0/tV5WU/qloLUpI/q8g7V/kjP0NMQZVKlSgCUuHxhyQbRbYqzyDvbHuSQT%2bEgfemPpWPjJvMV6ZYrUwpK5bAccdx/UKxgH8UDQW2ONYbr0s0va5obCXrc0pDaklJJ28lJxyc58qXnqXohdhujot74mxwkuEJ5W0n1V7e9bx05s1lumndAzHJi25bUUISyhajvW2CFAjOMDafMf7rlv%2bnbFd591hzJZjSJDqnc7j/EED5ceXp71O5cZbLODnDWuxTskGmo%2bDHUIVEv%2bnXV/MhaJzKfZQ2L/AOQg/elv1dbGrRqGfCiuKcjNOkNLV5qT2PFad8JzqUdWY6S4UFcV5IwcBXGSk/jP2rdPfaI2nF6Y7tSpUpiOa4yv0cVbvhPOkeSGkblE%2bwpBOrj70/WVxkyVLL3iK3JX/JPzYAPvTm9WNTydM2JlyC7FZfkOFvxJC9oQnGSR7%2bXrSQapfFxv8pTbyXlKXvU6jO1avbPOM0aDaDHopq1qLqCBaLktbTClrTFkDB8NxwbS2vPGxSsfQn3q%2b1PZH7XcpKi5OZjKVufW4z4aiAc7QefM96xRcVxLqs5SdviZHYZ4rW7o1elaeiS7uuU%2bnwklzxVFWFYHJ%2b1S3aWv06GLbJpxZm2s5bcl5AZQEI3k47/SqzT1xlWy8Q5UF5bLzbyFhSDg5Br76iQTLzkY25H3NV0Zo/qE4ICge/rW9a%2bqI73ubY9eh%2bpj12gxFXKAhsuYR4jbpO4%2buD6/WtMiSWpcdDzCtzavI0lemrjeXWGbTFYVHkBKHgW8lLiAocgcgc45GKZ7S13cizRGkLHgPDd2GxXOT9DVMq1rcTnV5DU%2bM2WOuItuvUF21XBptwLScFQBKFdsHsaXnUHTq2QbqosSG20oaClNoHCgO6s%2bXHJNHGs9SrYS4vxCCOSrPOap7FZ9Q6pkwb7Lty27LIjutOPhxIWpOeF7Sc7SRxjt7Vhi3xt3FmudRZVqcP6Zq7pBU/UVuahth2G88gKdSnzR5kkdhgcA84%2btbvqXTjMq3uwm0jw3xtQnk8Y8uP8AdENqscGGwUtMp3bACrueasEx/DQ2W0rWtI4BPH3NUSx4SWpEcMu2D3Fid9WtGr01Mi5VkO55A%2bUAY/8AaAYqlJltoYbD2FZKSP5etPDqDR1svcB1q%2bsocQUqQFIUd6UHB%2bU9jkD8ChzSPSnTenJTslllyVIcGEpfIc8LPvjz96FR449I1eb1qfbMr6XJlacg3a7SmvAaUgPKC8qKW0kYQCfU5onuvU1hE60ohhEj99hUhw/x2BQKh28%2bRRdr2DFas8%2bMxDLsl1koCAf22BggKUe55yE/msBiNNyNMMOnBcCNpPcEVllXOlKK9m3x%2bLHIslZPyvR//9k=' /%3e%3c/svg%3e"},"private":0}},{"node":{"path":"/team/bishoy_mikhaiel/","content":"\n","excerpt":"Cloud system engineer with 7 years experience on different cloud platforms and virtualization.","name":"Bishoy Mikhaiel","rank":1,"bio":"I am cloud system engineer with 7 years experience on different cloud platforms and virtualization. Worked as an application support on tomcat and MySQL platform and on jumpsacle and postgres, Worked on DCPM racktivity application. The company where I learn how to own your project and manage it, like idea of new internet.","linkedin":"https://www.linkedin.com/in/bishoy-michael/","websites":"https://threefold.tech","countries":["Egypt"],"cities":["Cairo"],"image":{"type":"image","mimeType":"image/jpeg","src":"/assets/static/bishoy_mikhaiel.36a08ae.97c00bc9b319918394410a609e0a60e0.jpg","size":{"width":640,"height":640},"sizes":"(max-width: 640px) 100vw, 640px","srcset":["/assets/static/bishoy_mikhaiel.36a08ae.97c00bc9b319918394410a609e0a60e0.jpg 640w"],"dataUri":"data:image/svg+xml,%3csvg fill='none' viewBox='0 0 640 640' xmlns='http://www.w3.org/2000/svg' xmlns:xlink='http://www.w3.org/1999/xlink'%3e%3cdefs%3e%3cfilter id='__svg-blur-fa11fb61c826e3e55dbeaae696dc488e'%3e%3cfeGaussianBlur in='SourceGraphic' stdDeviation='40'/%3e%3c/filter%3e%3c/defs%3e%3cimage x='0' y='0' filter='url(%23__svg-blur-fa11fb61c826e3e55dbeaae696dc488e)' width='640' height='640' xlink:href='data:image/jpeg%3bbase64%2c/9j/2wBDAAYEBQYFBAYGBQYHBwYIChAKCgkJChQODwwQFxQYGBcUFhYaHSUfGhsjHBYWICwgIyYnKSopGR8tMC0oMCUoKSj/2wBDAQcHBwoIChMKChMoGhYaKCgoKCgoKCgoKCgoKCgoKCgoKCgoKCgoKCgoKCgoKCgoKCgoKCgoKCgoKCgoKCgoKCj/wAARCABAAEADASIAAhEBAxEB/8QAHQAAAgICAwEAAAAAAAAAAAAAAAUGBwEIAgMECf/EADUQAAEDAwMBBQUGBwAAAAAAAAECAwQABREGEiExBxNBUWEIFDJxgSJSYpGhsRUjJFPB0eH/xAAaAQACAwEBAAAAAAAAAAAAAAAABAIDBQYB/8QAKhEAAgEDAwMCBgMAAAAAAAAAAQIAAwQRBTFREiEiMvAGExRBQmGBscH/2gAMAwEAAhEDEQA/ANqaKK65DqWGHHXM7G0laseQGaISHa07T9KaOkJjXq5oTMPPuzQK3APMgdPqRmqpme09bkPPtxbG64M4ZUuQEkj8Qwf0qmp%2bm7z2gahu99cW0h2XIUtId4JG7aOnTAGPpTSL2G3JTJdfuUZBx0DRJP50u11SQ4LRpbOswBC9jNkOy7tgseuf6VakW277iEwnnMqdA8UHAz48deKsyvndqiySdHaiEcylLdZ2uNvNko2nqCOc5HpW2fs36%2bn600xLYu5L022LQ0qV/eSoEjP4hjBPjwfOrlYMAw2i7oUJVtxLeoooqUjCsLSlaClaQpKhggjIIrNB6UQmrGnbxY7JqWbZJSpDMuPLdjIBZOxZS4cJB8c%2bFNpnaTB9790btc5tAXsU9IUlvPntTyfoa9d7t1ktvafMud2kNRybgtZLoGAraCDn1wKkNpj2WY%2bJimNySvKHFAgK4HJSf3xWJUCByQMj/Z0CFii9R424lHdtFocuKIVyYaX3j7oZwrgHPwn05q6PZm001peBdWGZJl%2b9pYfU8AkI3AKBSnBPHz5%2bVI%2b0eSyuTF/lB2Ow4l/YgclSTwMf4q2uy1uO/pWJdYyChNxbS%2blJQEFKMfZBA4B8T6mmLN6hAUbDMVvVpYZyPI4xJhRRRWnMmFFFFEJQ3tB6bebucO/RgsMO7Wn1JIAQ4PhKsg4ChxnzA86URXmodmRMnzwtaBlKEzCpKceYwPyq9dZ3K32rTU6VdmESYqWyDHUkK74nojB45/7WmtmtzeqdUTpM%2bImElx5REWMNrLeD8AT6DFLXFv4fNPpjlreZf6ZcFt/4ktVdndSztsBBXFZyp17H2cjnaPM1sN2QzIMrQFpbt29KIzXu60LGFJWnhX0JyQfEGqxi26HbbSWI6EoQobQEDkmnuhZkm0yXjFSnuCkJW2fhyOg9DimtMsXr0nrAYXYfvmY2u69QsrmnZnyY5LY/EY7e%2bO/3EuOilduvkSZhJV3Tv3Fn9j400r10ZDhhiMUa9OuvXTbIhUT1zqv%2bANIjxEJdnup3JC/hQnpuPn6CpZVCaruou2pbhJCstJX3TePup4B%2buCfrT2m2wuKvnsJi/EepPYWuaRwzHA/XJ98xBfb9cp94C7tIekxSjar7OUtqJ4IA6DHkPGkzFs93uTzkbbufUlxnZySrHJOOAMY5qShneMpGAPGsQLOEyHMq7trPDTR2gjrzjnqScZx6VtX9mlzSFHOBnPacZo%2buVLGu11jqfpI7ncnGDycf1xOywT5M555qXCLTbbikxnknKXG8%2bPkr9xU7htIZjhLaQB1NK7XFSnalKQEJ8BTgjA%2bX6VFwqKKabCUo71qjXNT1Nv7M5oLSEt7sIUs4SPE0yg6iXAUlLhL0Txz8SR5j/VQ64yliUUoUdwHdpPlnkn8sVzfdSGFISTlIAPpxwPnUWtQ4HX3zLKOqvbuTR7ET/9k=' /%3e%3c/svg%3e"},"private":0}},{"node":{"path":"/team/ahmed_siddique/","content":"\n","excerpt":"A hardworking individual and a casual guy who loves to explore new ideas in Tech.","name":"Ahmed Siddique","rank":1,"bio":"A hardworking individual and a casual guy who loves to explore new ideas in Tech. Experience in Telecom/IT, Networks, Cloud and  Systems Engineering and Servers Administration. I enjoy learning new things as Learning never exhausts the mind. I have not yet come accross an organization who are rebuilding the entire ecosystem of how things work in Tech. ThreeFold is going to be huge and i want to make sure i was part of this great movement.","linkedin":"https://www.linkedin.com/in/ahmed-siddique-a4126a98/","websites":"https://threefold.io/, https://www.mazraa.io/","countries":["UAE"],"cities":["Dubai"],"image":{"type":"image","mimeType":"image/jpeg","src":"/assets/static/ahmed_siddique.36a08ae.53426cb15fc4c42d33b5f3fa11308707.jpeg","size":{"width":640,"height":640},"sizes":"(max-width: 640px) 100vw, 640px","srcset":["/assets/static/ahmed_siddique.36a08ae.53426cb15fc4c42d33b5f3fa11308707.jpeg 640w"],"dataUri":"data:image/svg+xml,%3csvg fill='none' viewBox='0 0 640 640' xmlns='http://www.w3.org/2000/svg' xmlns:xlink='http://www.w3.org/1999/xlink'%3e%3cdefs%3e%3cfilter id='__svg-blur-652f2606283f0b7ec27a1583105d4c40'%3e%3cfeGaussianBlur in='SourceGraphic' stdDeviation='40'/%3e%3c/filter%3e%3c/defs%3e%3cimage x='0' y='0' filter='url(%23__svg-blur-652f2606283f0b7ec27a1583105d4c40)' width='640' height='640' xlink:href='data:image/jpeg%3bbase64%2c/9j/2wBDAAYEBQYFBAYGBQYHBwYIChAKCgkJChQODwwQFxQYGBcUFhYaHSUfGhsjHBYWICwgIyYnKSopGR8tMC0oMCUoKSj/2wBDAQcHBwoIChMKChMoGhYaKCgoKCgoKCgoKCgoKCgoKCgoKCgoKCgoKCgoKCgoKCgoKCgoKCgoKCgoKCgoKCgoKCj/wAARCABAAEADASIAAhEBAxEB/8QAGgAAAgMBAQAAAAAAAAAAAAAAAwUBBAYHAv/EADIQAAIBAwMCBAQDCQAAAAAAAAECAwAEEQUSIQYxBxNBUSIyYZEUcYEVI0JDcpKhsfH/xAAZAQACAwEAAAAAAAAAAAAAAAADBQACBAH/xAAoEQABAwMDAwMFAAAAAAAAAAABAAIDBBEhEjFBBVGBYbHwInGRocH/2gAMAwEAAhEDEQA/AOneDDbbdVPo7D7isB40WV9p/ibc3sUcbW80SToC7D%2bXtY8dsFc1qfBPXLfUrMSwB43SVBIjDsTx3p14vaXGl/Hq7FlVYFjkYAYUbiAT/dQemSml1CUWLb3%2beFK%2bMyuAZm5H7XDuvtSuZOi9P0y21DUF1bVQgUR7mFwEIG127jJIwee3PFYLpXoayvrGSTWr78JdozboHcIUCnBzwcninWs6vcjUY5BqNwsFhcnyoUhQCJlPzAn5skA/8rTX2uWN3pdneTWKT393DiUQRYEaqQm85/p7DmmLA915Bhp2V4Yxhp3G65V1X0xHpERutMuxdWy434bJUHseQDj64ra671NLr2kaYs6E31s8W%2bZ0JE8e3Cs%2bPmK7goPtT3reLSZtAgls/LMd60e%2bVEIxHuBY7e/oeKzF/aoYo7hrKW0sXdmjmVz5ZjByFYfwsO%2bPY%2blMI2nQ0A5%2bXt3xwuTQ6XXCF1Xqcz3NxA91FNal2YJbBQpz27dj24PIqzc3t7Z6JdabJNcLaIySvbGXsduAxHvgVnF1FbS4kljghuUZvgjUBVUdhj/Z/Kreiar%2bHkllGGZsRiRiDvQnG1gfTjmgFtha9g3jvkfMZQABezt1uvDXr2Pp3TvwttZSXWpy8Ll9iZHy59Dj3OOB37U7688TbfqbobTbjUo1/a0UzwypaSYWTaUO8A5Plk8fmODXEukzqs2rWUll%2b7Z50hinaINGHPYnPHbmp6nvwb%2bZYgq/EygqoRW9C20ZGSRnIo1F06jq6lzALg2J/NvAPH2RTI9rQ47hRqWpEhxLtG52kKbfc5GD96o2vUl3b3EPkuqwQSLLFG6eYEYEn7ZJpQx3HJNQVzTubp7DGI4hgIAlIdqTpupr6YSG6ka4kO4IWO1Uz3IAoUGtX4jjinuZZrVBgQM52fb35pWq4phEbERIZBIXx8Q9P0rVSUMcbbOXHyudypiviCo2gAZ5HfmrLXcXnZm2nHIKjH%2bfpSaVlEzCPOwnjPfFEUiRMPLHGBxlwx%2b2KXVlPEC6WIbbj%2bhXieRgp9Zz3NvZmK0kZIi27b3KnGCR7d6SXpUzOFIKg4BAxmmjSmG0YhhkDj3pNJuIOBmmkVNDEXyxtsSBss7XucLOKDEwyQaLmqi5Lt6EUdHPY1loqwkaXBEc1E9a8SttHFei3tXkoD3rZMXOaWx7qo9UBW%2bPJqzFJtYHCH6OAR9jQDCSwI4HvXorsXilUMczA7WMe6JccJ3cXLyWhit4XJm%2bfIwRg5FVHs7yK3WaW1nSJjhXZCFJ%2bho%2bnsqXKu8fmbfiC5I59M10TRjbahoFnZajJm28slwePlJPHtT%2bSB1IdWq998envhSKIPYT2XLTGW5aPJokNo0rhRtT8zxVzUIoIb2aO1d3hVsKzjBx9ar0zbQQv%2bp3Kz6iDYpza6Dp/kbrrUNkg9lJU/qO1LNVtreKcLZAlQOW8zfuP2GKFUg0cUEJOMIj5gRYNsqrI4Hyk14jgklmVXjbZnnBGau55Gan14oE/RmT4LzbwhiS3C//2Q==' /%3e%3c/svg%3e"},"private":0}},{"node":{"path":"/team/ahmed_hanafy/","content":"\n","excerpt":"Ahmed is an Automation Software Testing Engineer, started his carreer at Codescalers.","name":"Ahmed Hanafy","rank":1,"bio":"Ahmed is an Automation Software Testing Engineer, started his carreer at Codescalers, and now has about a year experience in Cloudcomputing software. Engineer fell in love with Threefold I believe that Threefold is changing the world by building the new neutral internet, it's a great experience to be part of this.","linkedin":"","websites":"https://threefold.tech","countries":["Egypt"],"cities":["Cairo"],"image":{"type":"image","mimeType":"image/png","src":"/assets/static/ahmed_hanafy.36a08ae.23370c2bc4c42281727c93dc4f7fb9a0.png","size":{"width":640,"height":640},"sizes":"(max-width: 640px) 100vw, 640px","srcset":["/assets/static/ahmed_hanafy.36a08ae.23370c2bc4c42281727c93dc4f7fb9a0.png 640w"],"dataUri":"data:image/svg+xml,%3csvg fill='none' viewBox='0 0 640 640' xmlns='http://www.w3.org/2000/svg' xmlns:xlink='http://www.w3.org/1999/xlink'%3e%3cdefs%3e%3cfilter id='__svg-blur-e1ca355312daf433e2d0c2141c3865ad'%3e%3cfeGaussianBlur in='SourceGraphic' stdDeviation='40'/%3e%3c/filter%3e%3c/defs%3e%3cimage x='0' y='0' filter='url(%23__svg-blur-e1ca355312daf433e2d0c2141c3865ad)' width='640' height='640' xlink:href='data:image/png%3bbase64%2ciVBORw0KGgoAAAANSUhEUgAAAEAAAABACAYAAACqaXHeAAAACXBIWXMAAAsTAAALEwEAmpwYAAAciklEQVR42tV7aXBc53Ulf01myoltkQSIrfd973697/uKXrGjsRAAQZAACBAkRYkiJZKiGVEStdHUGpUizYyjWElsx8pSoxpPFMuOo1Gcsid24lUe2VoqFVmKMtbiTTpzvgeCIkW5sgylYVD1qhd0v/fdc88999yvuzfhA/5755135GPj/i9/%2bcvz/3v%2bhRfx%2bcf/GKdO3Ybdu1YxPDiJVn0c%2b/YdxmOPfRY//NHz518r3nfheTbu/7/%2bbfqwgn/77XcX/O3vfBc33HACqWQBRq0Nik4NdL1GGPqMMCstsKgcsGhcKKWquOv2u/Gj5188/9633377soLwgQPw3ttHH30MwWASyl4D9AoTzBobTDo7zDqHfN%2bqdcChdcKuc8KitsPC22Kmht/79GfwzvuAcMUC8N7gxd/Jk6dg1FlhYYAiMDODNalt8Jq9iLljCFh8kPRuBIwS3BoCQQDsGh5qCwGx49j1J/DWWz/9lee/4gBYr/n1bP3uY38As8ENj9EHm5YZV5ohGd0ohTOY629huTmKpfoQZgr92JHvx0g0i7w7jCBf4yAzJIJk0ztx9szd51lwOcrgQymB1/7pn9BfHYSDwXuMQZkBcXcEo9kKlgdHcWC4jYOD47hmcAwHBkew1hzASr2JtdYQVhottKIpJJw%2bRDxh5FIVfPd7z15UClcsAzYU/4tf/DJc9hC8ljC81ggi7gRGCw0sNgaxymBX%2b5vYx%2bPqWgtrtQZWazXsr9dxdGQYp6YncMvOnZivlJGW/Ag5o7jpE6cvmxB%2bKAA8cP/DpK%2bPi0/IAZTDObRzVcwXqlgolLG7UMJqsYK9pQpWyiWsVcs4UO3H4VYTxwnCLbMzuHN1Ea1IGHF7ADsmd%2bLNt966cjVgIzPvnGt9Bw8egVXnQpRClwumMMYany43mNUBLNUGsJc0P9BskQE1MqHC4Cs4SACuqVVwXaOKo4MN3LeygIMjAwRAwtzELF5//fUrD4CL%2b/56fb7%2bxhsYZH17bQEMFprYMdjGXH0YY6z/KtthI5Lh/TJ21Vs4ODqK65jxQ0ODODI0gBsG67i%2bWcbh/gLu2D6MM6sLqMcTGKkP4LXXXrsyAdi4ffsc/b/1rW8j6I2hFC1iuT2HBYIxQfoPxHIo%2b2MIm5xseRaELU6KXRzL1ICDIyM40h7DyZkJ3Dw3iZPtYZwcq%2bGWhQkMxMOYGWnjzTffvLIAeG9ffvvc7WOf/n2514%2bXhrA2MYd5it5oJo%2bhWAqj8TQGg3GkLC4ETVZEjDYM8fFMNoupdBrjiSTLpIobtk/g9K5JGYDhSBDX7lm7MkXwwgV96r4HcGhmHmPVYXjY/%2bcG2lgensBEpoC8Q0LSQsNDUySpzQhozIjozSg5vRiNJAlKBAmzHZJKB0mhQdxsxmwujTv3LmE6ncADd31yHeQL5oMrggEbdf/Nr/0NdsSS2JMvoEaqp30JLDP7i%2bzz0%2bkiBvxRVKQw/HoaHJ2NmXfA16tG1enBHmZ8Lp5BVGVEmMCUbRKmQ1HMRSM4Ot3Gyvgw/scTT1wyIF0RAGy0vc89/CmsRBPYVytjgmo/WRvF2vad2DM8jsVqE7PZAuoeP7JmG5J6CxI8cmTEZDyFk9OT2JVOwt%2bjgqtHh4BKj2HJjZVsHKdmxnF4bgbPfu97F7nBK4cB5wD4n08%2bhflkAu2IH6sDE7h65wr2tLdjD13fXrq7Nba8XYUiJsJhjPoDGGWGJzgZHuD/7l1ewPUDVSTUJvjFnKAyIGuxYSLoxs3zE7jt8DUXCeAV2QVe%2b8fXsDo0hMV8Doem5kn/HVga247F5jD2sN2tNej6hNWt1LBcKtH7l7CrNkyKb8fD%2b5dw364pjHvcSGtMyLFLTEWiOMR2eHx2DI/cf89ly/5lZ8DGgt548y18YnmFLEhi7%2bgUFoensJtMmCvVGWwRC7kclrJ5zEZiGA8EsFSp47rpnTg6OY2H9%2b3GI/tmcWKkH6sUvh0M/upcEmd2T%2bD2pRncvLqGV//h5SuPARcu5h/JgGO7FzGTTGGuwoy3ZzFTamEoFMd4KCIHXbVa5WMiHMFcuoDdBOcAPcBd81N4ZP88bqhncOv4AM5un8SDpP6D%2b2dx3755LAVD%2bPM//KMrrwtcWAJvvPEmTh86hGO7duGOG09ilfU/nq%2bg5g2gJfmQo%2bgV7W5MUQxnc2U0pSCqDg92JBJYoNE5VCthKR7E3nQUJ4cbODPbxkNX78IDe7bjUD6Ov3n66SsXgI0FvfLyy3jjJz/BD597DitTs7S7RTSCYQz4gsibnWhGEtjVHMRCpYHxeBYNlxcNhwNtv0TqJzEd9GPYYcNSJs75IIv7l2ZxqBTH7Wu78bOf/ezK3hG6cGE//vGPcXDnMsaSOQxGY1T8CAp2JwJ6AzI2DxreCJq%2bAIYkL8Z8EhYLKZxoD2KOXSSv1WPc68F8IoCTQ1XcND%2bNv3/pxcu6LfaBD0NvcWw9Qus6kkhjJB7HcJB093rRDMdQdkeRM7MkdHb0G%2byoG60YsjtooiJkSgBJjR5jXgm7U1HcONrEl/7k8fPU/3exJ7ixwFuPHkeT9J9gVxgPhTDMY57z/wKFbypRIO1T2E63OOOLYieBGXO5kDYYUWZJzMfCLIkYbt4xim/%2b1V9e1u2wDxyADRbce/p29HuDGKXIjUfCGGcpbE8xaALSZhcYZbYnyIod4SAOVUs4xjF4jAapTaM0Fwvi9n2L%2bO1bjuP5H3x//dyXyQN8aAA8fM%2b9qPgjqDPw4WgU4yLwRBwT8SjGQnSCfi/GfR5sD3pxoJTBtRW2z3AIU6EwVgjGCz/64UWfLbxzGdf5wZbABgB338P5P4kyA%2boPBDGcSHEqzGIyncE0wZhNxrCQjsuKv7%2bYxFohit183I4G8d8f/9xFWZcz/%2b/hk6ELa/SB06cxLgDwh5Biv895vKiQ9lUeghFjLIs5DkBL%2bTQOVAtYrWQwGnDhnlMnL95iu0yfBXx4e4LnFnr2xCcwFU%2bgFYohZXUjaLAgoOW4yyNrsdMUOVBzu2mIJOpDBCMhHw1SlGP1X58fey934B8YABcGL6s1n/vkjSeo9kkME4Sy5EfMZIOPY65PqZfH3aBay/saTn5ahHQmAuDF8e0t/O/vfuuyq/6H7gPE323X34CpdArtbEbuBK1QEAmTBZJSC2evBs4eBdw9ffAplOgnC9bKSdw8O4AXzqn%2b5fws8EOYBd5V/%2b9869u46egxToTj2FHMYyafwc5iAfOlAkYiEZSdbiS0BqS1OrRcDizTAh/m2HusnsJtkxV89ak/u4QBlxuETR9U3b/66quYbU8gS6HbzSlvvpDDAo8lef7PYZptcIr1PhkMYIFqfy3V//RIGXeMlXGynsC9c00cnmnjy0996RL3d0WK4MaiNgTrC098AXEphCp7/zSzPlPIMPAsdhKE2WwSU3R4E%2bEAZiNBrCTCuDodxm%2b2sjg9XsKNtSTunB7AJIFpNwbwyiuvfmClsOlyBr9x%2b/Of/xz7V69FMpBH1hNBjSyYzLDf58SRkgGYTcYxSec3QurPepzYy/H3WDWN480MjlRTONwooGS3wKUx4P6z91yS/f%2bvPuBdul9M/V/84hfy/x955FHEIlVEvQWkvBlUImkUJQ9nAbIhFcNUMoppDjwCgFEGP%2bG2YXfUj9VsBKsFccQ5DUYQVmvQSOewMreAJ7/wZ5fsBH9oO0LvRf69re7C/bkXX3wJg0Nz8HtLCLizkGxRNPtH0a62kLPZMMo5f5R9fpy34wHel9wchlyYjfowE5Uwk/BxRggw%2b1aCFsCN%2b6/B2o5dOLL/EJ5//oXzpfBeYfy3iuSmf6mwrQe7vvX9fp/Li%2be%2b8Y2/xcFDxzEyuoB4uAKXPQm/Kw27kUK3sIaF9jTSRiMapH3L48KAONwO3to59hIIzgMjPhfqkgN%2beoPFqVmcvfVOTDRGsTy5A5%2b85Tb84Nln33c7/lcB8q8G4P2yvYH4Ra/j8fLLP8ZXv/p1fPrTn8W%2btSOIhItIphtoDcwgk2jCaU1AsifgNAdhtwWxunQA%2b%2bcXUeHklzIaUDCbULFaCIgdQx43BsmGfocNEQafDURw9LqjuPvM3RiuDmGu1cbpw8dxaO9%2bnLn9DL75jb/D//nJTy4J6F8LxqZfme0LprnzuzuvvII//ZMncOqm23HN1UexvPsaDLbmkM0MIZ8bQb22Hf3lceSzAyiVxuBxZSCRAT53Er2dGmz5WDey8TwzO4NGPIWYjh5Ap0eRQPTb7Kg4XIjqjIjavFjYsYRjN57CmbvugdvkxkC2hpuvPYqjB65FNsJO0t6JG4%2bexJ13nMGn/svv4Gtf%2bzp%2b%2btOfXjKN/nN6sen9sn7hd/nESb7zne/jtx74z5gYX0DIl4dF64PfmUIp2UKWx9DgTkxPriLFrIf9edT626i3ZhAJVWQAujv06PjIVii39qF7ay/LgvVfb6EWjiJjZq1bLCjbHCg6JFphG8Zak7jptrtx821nsX18Blf92lXQb9NgqNTE0UPXo1FoYLA0yBY5jqmBScSkFLKxCg7uO4KHH/qveO65H11Snr8KiE3vR3l5U5PZ/t3HPoN9%2b4%2bgnB9ByJ1H3F9AlK3NbQnDrvcjFa1ix9wapiaXqPpluG2kuyWKRLyKVK4BpyOIrqt6cdVHtmDrr3egb0svej7eDb9dwkB/P9r1OuqRGAb8XjQDXkTtLrhUDiTDOZZSGb3dWmz%2btc3o/mgnTH06qDt6sWN8Csszu5AJZlGJ15Bn2bWKo6jlB9EsDcNl8qKYquPOW8/iK1/%2bS/z83Abqe0G4CID3Pvm5zz2OpcUDyKRb8LGNeewxOPQBOChmdksQFqMPGoUdgWABuUyLQYfgdafg4eGyRaDoNmJbpwodH9sGdZcaVoMT%2bj4jlHyu89c7oevVYbjexPTwCCZqTTRDEYT0evRs6UDnb3Thqv%2b4GR/5Dx/Fx//TZnR9pAMqBm5UaGFSqOG3OdFPcIL2CPKRfuTCJZZIEF5bCPl4BalQjoAMYbQ6joHyEG45cRrfP/elqvfzERcxQGxgHrvhJFtYilTPMcMNlAsjKGSa8je8jBo3TEYvDFre6iT4yQaLIQCjysPHXridcbgdUao%2bX6O2ctFGeKxeBL1x2A1u9HWo0bVZgS6WwmCthcX5XVjYPo%2bMFIa%2bQ4GOzV3o%2bOg2Znwbughe71U90PUwcKUR2h7xbVI13GYHfHYmYJuBYMRRTjb4XJCZ95OVHvgdIUyNzWLX/ApyqX4UyIb5yd146smn3vcjtU0X1vyTT/45F%2bonmnEkWVOJGJEmEBnehr1JaJR2aElRjzWMeKAg/89iCMFMdpi1XpjULtjNATKE53BGkUuUCWSCjz1Q9RgIlBWaPjM6tyiQiqRwYN9BjI9Pw2MmYF0GqLZpodrchy5SXuiFXmGASWuBzxEmAEb0bVUh6uPaQhRWMsDGa0alDNcbgdPkg1njgFFp4dqyGKq2ybAdZEmRZVLCxNAMvv61/3UJCJsu3Ls7e/a3WJ9JmepF1lSFVHIywzaDD057GFa9BC8vHGPwYYqh6PMOcxguHhatBJPKBWW3iQFLKOWb8hGP5MkGB/RKGxdn46Ld0CksUKqNWFrej2qpAQNLQnxxUtdtgEPrgkVjgZbPGVUWJsQFyeKHrs8ETZcODpUdSX8KySj1KJRHgKyTSH8nGeowSNCrbSxPgsYkjdfaCNgCZEWY5dGPB%2b976BI3eV4DxJeO2lR5v5PGhTXldsaQiJRgFYFpPfB5krK4hAMZlkiaWfcxMNLeGiVgflhZAgaVk691kRlJvi4tB2/UMSAC6LKG4CBNTWonDBoXepmpfHGAYCbh1ltgVZuoJW54XUFk4jkEXGH5qzUGpZVJcMtAGAmShcGZVTa21ijisSK9R55siyDoinENbqgIlADBSTBSXKtD70KWTBxpTuH3Hv3MpQzYoP9f/MXTSCbqyKYGEKa42blgHekughcLDkppxMIFKnwRai5A0W3mBSmKBkF/Nyw6D1ngZhtMwy8JLQhBrTAjyMdBUtJq9sNDUCVqhIeHhcJpZM36bD4UoknEvGGkEzl4qQcu6oabmbPo3bBRT9wWnxyIRWOHkdoi2KQnMC6%2bRnJHCFgZMV%2baQmuBgqWmV9uZ9Qi8ZE6A6wh5EwShH7eeuuMSz7Np47u8jzzyO/D7igy%2bDIkZdnKRLlJLz6CE%2bJkJhIV1ZjUJwXNCR1qbmNkgX%2bsRFGTtu9gh3LxvY02L7wVLrgga9QkUisN0gmG4XXH43TFmKwIHAdD3mmHoViPkCdIbBNEoD1Izkjy3VX6/jddz8X1hSYhdBYVkmWvg85YA6z4MieDYWfcmHi6zjx3HIIMeDXEGsQZZWiZZX/RkTdyfweLcHrz00ksXjdbnS%2bDw4d9kTbPlOeLQ63xydiPBHHTMvkHDNsZFiZOLoALsEmZRc9QDkXEZAAqRoLkkbm3rAUr2KIrlUaSzLZaCB3oZSBfbmRndW9gRqPJBmqJENEOGxZEI0jmSESpqgYYlohW6QRa6WGK5VA3FXFMWOwG%2bAMir98KqEIwwU3%2bsFEoKrc6BoCcOg2BCtw5aiq6WQBSjFQwyEc88/cxFOiA7QfG10%2bnpVQSkIjOapYiFYNX4WMMlUjLF3u9DH03Jtg6VLHCZZI0LYM1TFK18LEROJ1ok9cJFARX/k1um2o0QzxGiCstCyMNIEdMzwK7NKqh79OwUeZ6PJWfie5mtoDskA6AiSFp2HTuDdFBfgqR4PCp6foCdxEoQKKj0ItptOvR1qqHu1JIBWvR0aRDwxNgmNdDyvoHXsxD02YFZFFjan//s5y8F4LkfPo9icZzBs7V5c8wsjQ/bYSZZZ/3m5IsJADrZhoykW9iXkfVBZgfrTcdMaSiAOoUDFgato9Dp%2bFiIYjxRRZwKbBCCphKiZmNft0HZY6Zam%2bXZIB5MEwwTGeRHxJ%2bEunudyoJ5LgqyjeUnAMhlGoh4UtD0WmShsysJai8NFgNXEQDRRrdu7kU0nGFZWPicSgYg5I5jfmxBbokP3vvgpQA881d/jWisiZC/SJFKs84CcnvJppqyIKqprAKALhoZh0nMASwTAmCkGTLr1kHQc5Ei6w52BzOzZuB9i8aDNE1UlCwQHsBAWpu4ICuB0yhsBNCOqD9Bg2OiuDnpIfzsHiJAo1wCRmbOxbUIAPwSu1B%2bAHFflmJnleveQYDFr04UBEDZoZFLoIM%2bIhLJkoV2KLep2KG8jCmMamEAw80JnL3r4t0lGYCvfOUZtrkCazlJlycxWBOZkOSU14CLKqpgLXXS0/dsVcoCJ1qkka/TkaJOio%2bFpWDU%2bdkJSGMKo40A6BmkRSsunuDiGaSgNOtRsEW0Qg0BVDJwPXu9TvYIdgoWAaBrVApT1MvaFsZKAEowfZ4Ecukq3AxI30N9oLAZqPq6Lj0D1ci/O%2brl7dar%2btgZ2GX0BJSdI0IrH6JmlXI1rC4fwE2cMF/lnLMBggzA44//Nwog25U7xzcnqe4eue5LNEJeTxQ9pNI2AqBgrQUYTIhlEQuV2Iup6uy/wv3ZaTz057JrkkvAIYOk7rXBTRNlYKAq0lzdJxZPwWL2VL0CEB6yg7PBw%2bBikgCAAfWIfu6U61fLjMcjBblEDGSjeG5dJPnenvXfHql69eijpigJsoPt0WMTLA4j5s/SU8Thc4bQqg1hdWEFz3zl6fOdYJP4usnqyrU0PQ3k4nUqPFsIW1WIbitD5Q1QUTWCWpzlDWoLu0SE4AQ4BldRrYyi3j%2bKTKLEQI3Mul0WO9EyxSaIMEuiNKy0wppeA3pZpwpaWiNbq9NMH8AaF21NS3DMfJ%2bN4CXZwrQKPZ%2bjAWIrk%2bxB%2bb4QSWGKTOJ1vG9lFxDzhoqOUd1noO5Y6DmSCHDddgJlVK//AMvDzmQjM/UErJjux9zIdnzy1rveZcALL7yAgdY0HRhNiBA/tjCtEA6eqJBrwcv6ET9p62TLUvBidtZkT4eObjBOVS4jlxV7AHEuTGTMjF4GaGKAVl7UQA3QkMY%2bmhWHiVnjRGighxC93WePUz%2boGTQ9HnYSHWkvHueyDVpuFw2QHxK1Jkjq6zQcrCigdp1H9htWniPLqc/OlqdW6rGVY7ad5/FKdINWn8yAvm3rmmAT5Um2qVluQ7UxdoNpTDXbeOHc/uImsZN73aETdGpRuY2JYUdBinpJ7WyajKAFVrLVKKiwnVRYIShxOsJUokJ1r9DNuUl9E2f4FOqFOrPu4oLX7a7oBj7WX6U0SE%2bRlJXbyCCdVHbR20XmfXY/5/oi3MyohhlOs87NPKeBzHGQRR6yQM3njVT8pJg/aLZcNr/8%2bhyHolQoTm3qkwPuZffoJpBCA/q4Xq34LSLFVsWOY2XZLLTnMdE/QvCyeOqLX3p3R%2bieux%2biu2I9S1nWMynHRWrZY4X1DbHl9WzVyr1ZsEByh6nGTRkcYW81rGlhSwU9w7ywZAvSBAUZjE02MuI1emZMcgsx1fMwsQ1yZqDo9XHUtapolzneulgKRlI2SOYpuXAF9cFIEK1aJ7o69WSFj5Of0CkyR%2b9gi1PDpbMhShcphqdeepTebXoyUGiAn6XBc1AgdfL6GAu1a%2bfoLKqpirzOP/zMuh/Y9MYbr2N58SCnPdpfa4w0JG0pSoIyUTqzXLohT4E9dG6iCyhZn2rWm%2bjTAhgl53J1j0X256I1iQuLADq3KNmSlNjG9ykZuMvuRTfFtKdTx6CdNDceZtZCfdGzfKxyPcc4PMU55fXx9Wql%2bDGlxLbqpmcw8r0aBmNmC6SQcirUUvSUnUoOPQSNJWYjgN1kQRdfJ8qhl%2bfo2qqWBdTCLhIlEyeHp9EgG0Nk8aMPf2odgL/722%2bjUhAbmFlmPC%2brupH0UvMEEpWzXBqi8iflElDRB/Sxt3Zxnt/68V76Ag1ZoWBdetFfbCKf6ydoKTozqjgXI4RPI0SPah3isKNgxvu4eKfQCJZJt6ApmSPO46V7y%2bXq7OE5GVwty8cq7DYBEJ1C7DBpFAa4mH0N3yf0pIsJEWAI8LRMSg/XtuVjnQRAkl2rSISLHSjEVuijmLfHZrCycx9KsTJOHDm%2bDsCf/vETKGSHOVb2s07TDCDHRRRZm1HO3Hm2wkG2krRMcw0pte3j3XK9rTtDJWvVSUFMwEcBKuar7BJBlhH9OpVbRRANCovcRYQGaNiulDyHU5gmZrJjS59cWlazxEEpihQ1JZevy8wQTlJMmDaWhVZhRF8fBdjikXeY/LyGit5ESfaIOhf3uzvIOCHU29S8PgFgiVjZLSLMfIpuNCA2SRptXLf3CAbKw5iZmMMPnv0BNt1//0OyW7NZIqw3j2w/NWLLS%2b1BmcNHs95GmsB4xXTIeu7lhXq7KTjCZ2spluzbPt966%2bmiC7OQPRYC4OBjM9uihgGKrHtFO2VmFaxTqzBCfP/mq7poud0EnwMV/%2b%2bgwnvZXcS4re2zyz%2bgFiOwskfHOZ/dhdm3mT1ss3Z5ABKBG%2bRNEzLK6JKT0s3SE0KsJ3ACADv1zEx/IdxtMpjH4uwKaoUmypka54I/wqaFpauhZq0pui1wsG3Zqc4msa3FjhALZolemXO1j/XtogWOcmEcZAiCkrc%2bDyc/V4huMSjTXmhENwMTF3ey90sWLzNkkDPq5hQpbhUERPT8vq0KdHerkGLNBwJJ2Bx%2bssMoe5A%2bYZh6OBKzhZrVYu%2bB5Ue7K346q6NoKgXtyTBx28P5RLhMMwEw6O1y6Rkpun1iE5aME7tPauEamVQ/HezE8AzK7DRxiuKpG2/G/wU2cBp77RFq/AAAAABJRU5ErkJggg==' /%3e%3c/svg%3e"},"private":0}}]},"memberships":{"edges":[{"node":{"id":"foundation","path":"/team/memberships/foundation/"}},{"node":{"id":"tech","path":"/team/memberships/tech/"}}]}},"context":{"private":null}}